SCU_PASER.utf8
…
```r
data  <- read_excel("SCU_PASER_files/data.xlsx")
```
]
--
<br>
.centre[
  We can view our data set using **print**

```r
print(data, n=5) # n = number of rows to show
```

```
## # A tibble: 15 x 9
##   Name       Position Acc_10m   CMJ COD_505 Max_velocity Sprint_20m Squat YYIRL1
##   <chr>      <chr>      <dbl> <dbl>   <dbl>        <dbl>      <dbl> <dbl>  <dbl>
## 1 Athlete 1  Midfiel~    2.06  36.7    2.60         23.9       3.37  81.7  1256.
## 2 Athlete 3  Defender    1.84  34.8    2.47         25.4       3.39  88.4  1386.
## 3 Athlete 7  Defender    2.01  35.3    2.66         28.5       3.42  89.4  1377.
## 4 Athlete 9  Goal ke~    2.09  32.2    2.66         26.3       3.42  91.4  1249.
## 5 Athlete 11 Midfiel~    2.01  31.0    2.64         27.2       3.50  85.4  1283.
## # i 10 more rows
```
…
